{
    "/js/app.js": "/js/app.js",
    "/css/app.css": "/css/app.css",
    "/js/gate-app.js": "/js/gate-app.js",
    "/pixel-admin/js/bootstrap.min.js": "/pixel-admin/js/bootstrap.min.js",
    "/pixel-admin/js/jquery.min.js": "/pixel-admin/js/jquery.min.js",
    "/pixel-admin/js/jquery.slim.min.js": "/pixel-admin/js/jquery.slim.min.js",
    "/pixel-admin/css/bootstrap.min.css": "/pixel-admin/css/bootstrap.min.css",
    "/pixel-admin/js/pixel-admin.min.js": "/pixel-admin/js/pixel-admin.min.js",
    "/pixel-admin/js/ie.min.js": "/pixel-admin/js/ie.min.js",
    "/pixel-admin/js/jquery-ui-extras.min.js": "/pixel-admin/js/jquery-ui-extras.min.js",
    "/pixel-admin/css/pixel-admin.min.css": "/pixel-admin/css/pixel-admin.min.css",
    "/pixel-admin/css/pages.min.css": "/pixel-admin/css/pages.min.css",
    "/pixel-admin/css/widgets.min.css": "/pixel-admin/css/widgets.min.css",
    "/pixel-admin/css/themes.min.css": "/pixel-admin/css/themes.min.css",
    "/pixel-admin/logo-big.png": "/pixel-admin/logo-big.png"
}